c:\users\miyelo\desktop\pruebas-de-codigo\visual studio\c++\carreradehilos\pruebadecodigos\debug\pruebadecodigos.pch
c:\users\miyelo\desktop\pruebas-de-codigo\visual studio\c++\carreradehilos\pruebadecodigos\debug\vc120.pdb
c:\users\miyelo\desktop\pruebas-de-codigo\visual studio\c++\carreradehilos\pruebadecodigos\debug\vc120.idb
c:\users\miyelo\desktop\pruebas-de-codigo\visual studio\c++\carreradehilos\pruebadecodigos\debug\stdafx.obj
c:\users\miyelo\desktop\pruebas-de-codigo\visual studio\c++\carreradehilos\pruebadecodigos\debug\pruebadecodigos.obj
c:\users\miyelo\desktop\pruebas-de-codigo\visual studio\c++\carreradehilos\debug\pruebadecodigos.ilk
c:\users\miyelo\desktop\pruebas-de-codigo\visual studio\c++\carreradehilos\debug\pruebadecodigos.exe
c:\users\miyelo\desktop\pruebas-de-codigo\visual studio\c++\carreradehilos\debug\pruebadecodigos.pdb
c:\users\miyelo\desktop\pruebas-de-codigo\visual studio\c++\carreradehilos\pruebadecodigos\debug\pruebadecodigos.tlog\cl.command.1.tlog
c:\users\miyelo\desktop\pruebas-de-codigo\visual studio\c++\carreradehilos\pruebadecodigos\debug\pruebadecodigos.tlog\cl.read.1.tlog
c:\users\miyelo\desktop\pruebas-de-codigo\visual studio\c++\carreradehilos\pruebadecodigos\debug\pruebadecodigos.tlog\cl.write.1.tlog
c:\users\miyelo\desktop\pruebas-de-codigo\visual studio\c++\carreradehilos\pruebadecodigos\debug\pruebadecodigos.tlog\link.command.1.tlog
c:\users\miyelo\desktop\pruebas-de-codigo\visual studio\c++\carreradehilos\pruebadecodigos\debug\pruebadecodigos.tlog\link.read.1.tlog
c:\users\miyelo\desktop\pruebas-de-codigo\visual studio\c++\carreradehilos\pruebadecodigos\debug\pruebadecodigos.tlog\link.write.1.tlog
