^C:\USERS\MIYELO\DESKTOP\PRUEBAS-DE-CODIGO\VISUAL STUDIO\C++\CARRERADEHILOS\PRUEBADECODIGOS\DEBUG\PRUEBADECODIGOS.OBJ|C:\USERS\MIYELO\DESKTOP\PRUEBAS-DE-CODIGO\VISUAL STUDIO\C++\CARRERADEHILOS\PRUEBADECODIGOS\DEBUG\STDAFX.OBJ
C:\USERS\MIYELO\DESKTOP\PRUEBAS-DE-CODIGO\VISUAL STUDIO\C++\CARRERADEHILOS\DEBUG\PRUEBADECODIGOS.ILK
C:\USERS\MIYELO\DESKTOP\PRUEBAS-DE-CODIGO\VISUAL STUDIO\C++\CARRERADEHILOS\DEBUG\PRUEBADECODIGOS.EXE
C:\USERS\MIYELO\DESKTOP\PRUEBAS-DE-CODIGO\VISUAL STUDIO\C++\CARRERADEHILOS\DEBUG\PRUEBADECODIGOS.PDB
