^C:\USERS\MIYELO\DESKTOP\PRUEBAS-DE-CODIGO\VISUAL STUDIO\C++\CARRERADEHILOS\SOCKETS_SERVIDOR\STDAFX.CPP
C:\USERS\MIYELO\DESKTOP\PRUEBAS-DE-CODIGO\VISUAL STUDIO\C++\CARRERADEHILOS\SOCKETS_SERVIDOR\DEBUG\SOCKETS_SERVIDOR.PCH
C:\USERS\MIYELO\DESKTOP\PRUEBAS-DE-CODIGO\VISUAL STUDIO\C++\CARRERADEHILOS\SOCKETS_SERVIDOR\DEBUG\VC120.PDB
C:\USERS\MIYELO\DESKTOP\PRUEBAS-DE-CODIGO\VISUAL STUDIO\C++\CARRERADEHILOS\SOCKETS_SERVIDOR\DEBUG\VC120.IDB
C:\USERS\MIYELO\DESKTOP\PRUEBAS-DE-CODIGO\VISUAL STUDIO\C++\CARRERADEHILOS\SOCKETS_SERVIDOR\DEBUG\STDAFX.OBJ
^C:\USERS\MIYELO\DESKTOP\PRUEBAS-DE-CODIGO\VISUAL STUDIO\C++\CARRERADEHILOS\SOCKETS_SERVIDOR\SOCKETS_SERVIDOR.CPP
C:\USERS\MIYELO\DESKTOP\PRUEBAS-DE-CODIGO\VISUAL STUDIO\C++\CARRERADEHILOS\SOCKETS_SERVIDOR\DEBUG\VC120.PDB
C:\USERS\MIYELO\DESKTOP\PRUEBAS-DE-CODIGO\VISUAL STUDIO\C++\CARRERADEHILOS\SOCKETS_SERVIDOR\DEBUG\VC120.IDB
C:\USERS\MIYELO\DESKTOP\PRUEBAS-DE-CODIGO\VISUAL STUDIO\C++\CARRERADEHILOS\SOCKETS_SERVIDOR\DEBUG\SOCKETS_SERVIDOR.OBJ
